<?xml version="1.0" encoding="UTF-8" standalone="no"?>
<!-- Created with Inkscape (http://www.inkscape.org/) -->

<svg
   xmlns:dc="http://purl.org/dc/elements/1.1/"
   xmlns:cc="http://creativecommons.org/ns#"
   xmlns:rdf="http://www.w3.org/1999/02/22-rdf-syntax-ns#"
   xmlns:svg="http://www.w3.org/2000/svg"
   xmlns="http://www.w3.org/2000/svg"
   xmlns:sodipodi="http://sodipodi.sourceforge.net/DTD/sodipodi-0.dtd"
   xmlns:inkscape="http://www.inkscape.org/namespaces/inkscape"
   width="40mm"
   height="55mm"
   viewBox="0 0 40 55"
   version="1.1"
   id="svg8"
   inkscape:version="0.92.3 (2405546, 2018-03-11)"
   sodipodi:docname="cogef.svg"
   inkscape:export-filename="/home/oliver/gridpaw/cogef/doc/static/COGEF2.png"
   inkscape:export-xdpi="200.02499"
   inkscape:export-ydpi="200.02499">
  <defs
     id="defs2" />
  <sodipodi:namedview
     id="base"
     pagecolor="#133f51"
     bordercolor="#666666"
     borderopacity="1.0"
     inkscape:pageopacity="1"
     inkscape:pageshadow="2"
     inkscape:zoom="5.6568542"
     inkscape:cx="70.165825"
     inkscape:cy="86.364215"
     inkscape:document-units="mm"
     inkscape:current-layer="g896"
     showgrid="true"
     inkscape:window-width="1853"
     inkscape:window-height="1025"
     inkscape:window-x="67"
     inkscape:window-y="27"
     inkscape:window-maximized="1">
    <inkscape:grid
       type="xygrid"
       id="grid16" />
  </sodipodi:namedview>
  <metadata
     id="metadata5">
    <rdf:RDF>
      <cc:Work
         rdf:about="">
        <dc:format>image/svg+xml</dc:format>
        <dc:type
           rdf:resource="http://purl.org/dc/dcmitype/StillImage" />
        <dc:title></dc:title>
      </cc:Work>
    </rdf:RDF>
  </metadata>
  <g
     inkscape:label="Layer 1"
     inkscape:groupmode="layer"
     id="layer1"
     transform="translate(0,-242)">
    <g
       id="g896"
       transform="translate(-6.6145833,-1.322922)">
      <text
         inkscape:export-ydpi="42.412502"
         inkscape:export-xdpi="42.412502"
         id="text12"
         y="284.30469"
         x="12.027128"
         style="font-style:normal;font-weight:normal;font-size:5.29166651px;line-height:125%;font-family:Sans;letter-spacing:0px;word-spacing:0px;fill:#c88c00;fill-opacity:1;stroke:none;stroke-width:0.26458332px;stroke-linecap:butt;stroke-linejoin:miter;stroke-opacity:1;"
         xml:space="preserve"><tspan
           style="font-size:35.27777863px;fill:#c88c00;fill-opacity:1;stroke-width:0.26458332px;"
           y="284.30469"
           x="12.027128"
           id="tspan10"
           sodipodi:role="line">C</tspan></text>
      <path
         inkscape:export-ydpi="42.412502"
         inkscape:export-xdpi="42.412502"
         sodipodi:nodetypes="ccccccccccc"
         inkscape:connector-curvature="0"
         id="path18"
         d="m 27.78125,258.63542 v -5.29167 l 1.322916,1.32292 0.79375,-0.79375 -3.439583,-3.43959 v 0 l -3.439583,3.43959 0.79375,0.79375 1.322916,-1.32292 v 5.29167 z"
         style="fill:#6969ff;fill-opacity:1;fill-rule:evenodd;stroke:#0000b4;stroke-width:0.26458332px;stroke-linecap:butt;stroke-linejoin:miter;stroke-opacity:1" />
      <path
         inkscape:export-ydpi="42.412502"
         inkscape:export-xdpi="42.412502"
         sodipodi:nodetypes="ccccccccccc"
         inkscape:connector-curvature="0"
         id="path18-3"
         d="m 25.135417,283.77083 v 5.29167 l -1.32292,-1.32292 -0.79375,0.79375 3.43959,3.43959 v 0 l 3.43958,-3.43959 -0.79375,-0.79375 -1.32292,1.32292 v -5.29167 z"
         style="fill:#6969ff;fill-opacity:1;fill-rule:evenodd;stroke:#0000b4;stroke-width:0.26458332px;stroke-linecap:butt;stroke-linejoin:miter;stroke-opacity:1" />
      <path
         inkscape:export-ydpi="42.412502"
         inkscape:export-xdpi="42.412502"
         inkscape:connector-curvature="0"
         id="path12"
         d="m 27.78125,266.57292 1.322916,2.64583 -3.96875,1.32292 2.645834,1.32291 -1.322917,3.96875 5.291667,-2.64583 1.322916,2.64583 3.96875,-2.64583 2.645834,2.64583 1.322916,-3.96875 2.645833,-1.32291 -2.645833,-1.32292 1.322917,-2.64583 -5.291667,1.32291 -1.322916,-2.64583 -2.645834,2.64583 z"
         style="fill:#ffff00;fill-opacity:1;fill-rule:evenodd;stroke:#ffff00;stroke-width:0.26458332px;stroke-linecap:butt;stroke-linejoin:miter;stroke-opacity:1" />
      <path
         inkscape:export-ydpi="42.412502"
         inkscape:export-xdpi="42.412502"
         inkscape:connector-curvature="0"
         id="path822"
         d="m 34.395833,263.92708 -1.322917,1.32292 1.322917,1.32292"
         style="fill:none;fill-rule:evenodd;stroke:#00b400;stroke-width:1;stroke-linecap:butt;stroke-linejoin:miter;stroke-miterlimit:4;stroke-dasharray:none;stroke-opacity:1" />
      <path
         inkscape:export-ydpi="42.412502"
         inkscape:export-xdpi="42.412502"
         sodipodi:nodetypes="ccccc"
         inkscape:connector-curvature="0"
         id="path824"
         d="m 34.395833,279.5375 1.5875,-2.11667 -1.322917,-1.32291 1.058334,-1.32292 -0.264584,-0.26458"
         style="fill:none;fill-rule:evenodd;stroke:#00b400;stroke-width:1;stroke-linecap:butt;stroke-linejoin:miter;stroke-miterlimit:4;stroke-dasharray:none;stroke-opacity:1" />
      <text
         xml:space="preserve"
         style="font-style:normal;font-weight:normal;font-size:4.58611107px;line-height:125%;font-family:Sans;letter-spacing:0px;word-spacing:0px;fill:#c88c00;fill-opacity:1;stroke:none;stroke-width:0.1;stroke-linecap:butt;stroke-linejoin:miter;stroke-opacity:1;stroke-miterlimit:4;stroke-dasharray:none;-inkscape-font-specification:Sans;font-stretch:normal;font-variant:normal;"
         x="28.415878"
         y="272.34561"
         id="text18"><tspan
           sodipodi:role="line"
           id="tspan16"
           x="28.415878"
           y="272.34561"
           style="font-size:4.58611107px;stroke-width:0.1;fill:#c88c00;fill-opacity:1;stroke:none;stroke-opacity:1;stroke-miterlimit:4;stroke-dasharray:none;-inkscape-font-specification:Sans;font-family:Sans;font-weight:normal;font-style:normal;font-stretch:normal;font-variant:normal;">OGEF</tspan></text>
    </g>
  </g>
</svg>
